{
  "color": "<div class=\"flex flex-col gap-y-3\">\n  <div class=\"flex gap-x-2\">\n    <Button @click=\"handleClick\">Primary</Button>\n    <Button variant=\"outlined\" @click=\"handleClick\">Primary</Button>\n    <Button variant=\"ghost\" @click=\"handleClick\">Primary</Button>\n  </div>\n  <div class=\"flex gap-x-2\">\n    <Button color=\"secondary\" @click=\"handleClick\">Secondary</Button>\n    <Button color=\"secondary\" variant=\"outlined\" @click=\"handleClick\">Secondary</Button>\n    <Button color=\"secondary\" variant=\"ghost\" @click=\"handleClick\">Secondary</Button>\n  </div>\n\n  <div class=\"flex gap-x-2\">\n    <Button color=\"warning\" @click=\"handleClick\">Warning</Button>\n    <Button color=\"warning\" variant=\"outlined\" @click=\"handleClick\">Warning</Button>\n    <Button color=\"warning\" variant=\"ghost\" @click=\"handleClick\">Warning</Button>\n  </div>\n\n  <div class=\"flex gap-x-2\">\n    <Button color=\"danger\" @click=\"handleClick\">Danger</Button>\n    <Button color=\"danger\" variant=\"outlined\" @click=\"handleClick\">Danger</Button>\n    <Button color=\"danger\" variant=\"ghost\" @click=\"handleClick\">Danger</Button>\n  </div>\n\n  <div class=\"flex gap-x-2\">\n    <Button color=\"black\" @click=\"handleClick\">Black</Button>\n    <Button color=\"black\" variant=\"outlined\" @click=\"handleClick\">Black</Button>\n    <Button color=\"black\" variant=\"ghost\" @click=\"handleClick\">Black</Button>\n  </div>\n\n  <div class=\"flex gap-x-2\">\n    <Button color=\"light-grey\" @click=\"handleClick\">Light Grey</Button>\n    <Button color=\"light-grey\" variant=\"outlined\" @click=\"handleClick\">Light Grey</Button>\n    <Button color=\"light-grey\" variant=\"ghost\" @click=\"handleClick\">Light Grey</Button>\n  </div>\n\n  <div class=\"flex gap-x-2\">\n    <Button color=\"white\" @click=\"handleClick\">White</Button>\n    <Button color=\"white\" variant=\"outlined\" @click=\"handleClick\">White</Button>\n    <Button color=\"white\" variant=\"ghost\" @click=\"handleClick\">White</Button>\n  </div>\n</div>"
}
